\begin{thebibliography}{1}

\bibitem{Griffiths:2011:IBP:1953048.2021039}
Thomas~L. Griffiths and Zoubin Ghahramani.
\newblock The indian buffet process: An introduction and review.
\newblock {\em J. Mach. Learn. Res.}, 12:1185--1224, July 2011.

\bibitem{Teh2010a}
Y.~W. Teh.
\newblock {D}irichlet processes.
\newblock In {\em Encyclopedia of Machine Learning}. Springer, 2010.

\bibitem{Thibaux:2007aa}
Romain Thibaux, Romain Thibaux, and Michael~I." Jordan.
\newblock Hierarchical beta processes and the indian buffet process. this
  volume.
\newblock {\em IN PRACTICAL NONPARAMETRIC AND SEMIPARAMETRIC BAYESIAN
  STATISTICS}, 2007:227--242, 2007.

\end{thebibliography}
